<define-tag pagetitle>DLA-1220-1 gimp</define-tag>
<define-tag report_date>2017-12-23</define-tag>
<define-tag secrefs>CVE-2017-17784 CVE-2017-17785 CVE-2017-17786 CVE-2017-17787 CVE-2017-17788 CVE-2017-17789</define-tag>
<define-tag packages>gimp</define-tag>
<define-tag isvulnerable>yes</define-tag>
<define-tag fixed>yes</define-tag>
<define-tag fixed-section>no</define-tag>

#use wml::debian::security

