<define-tag pagetitle>DLA-1615-1 nagios3</define-tag>
<define-tag report_date>2018-12-24</define-tag>
<define-tag secrefs>CVE-2013-7108 CVE-2013-7205 CVE-2014-1878 CVE-2016-9566 CVE-2018-18245 Bug#771466 Bug#823721 Bug#917138</define-tag>
<define-tag packages>nagios3</define-tag>
<define-tag isvulnerable>yes</define-tag>
<define-tag fixed>yes</define-tag>
<define-tag fixed-section>no</define-tag>

#use wml::debian::security

