<define-tag pagetitle>DLA-1482-1 libx11</define-tag>
<define-tag report_date>2018-8-29</define-tag>
<define-tag secrefs>CVE-2018-14598 CVE-2018-14599 CVE-2018-14600</define-tag>
<define-tag packages>libx11</define-tag>
<define-tag isvulnerable>yes</define-tag>
<define-tag fixed>yes</define-tag>
<define-tag fixed-section>no</define-tag>

#use wml::debian::security

