<define-tag pagetitle>DLA-1427-1 znc</define-tag>
<define-tag report_date>2018-7-15</define-tag>
<define-tag secrefs>CVE-2018-14055 CVE-2018-14056 Bug##903787 Bug##903788</define-tag>
<define-tag packages>znc</define-tag>
<define-tag isvulnerable>yes</define-tag>
<define-tag fixed>yes</define-tag>
<define-tag fixed-section>no</define-tag>

#use wml::debian::security

