<define-tag pagetitle>DLA-1330-1 openssl</define-tag>
<define-tag report_date>2018-3-30</define-tag>
<define-tag secrefs>CVE-2018-0739</define-tag>
<define-tag packages>openssl</define-tag>
<define-tag isvulnerable>yes</define-tag>
<define-tag fixed>yes</define-tag>
<define-tag fixed-section>no</define-tag>

#use wml::debian::security

