<define-tag pagetitle>DSA-4362-1 thunderbird</define-tag>
<define-tag report_date>2019-1-01</define-tag>
<define-tag secrefs>CVE-2018-18498 CVE-2018-18494 CVE-2018-18493 CVE-2018-18492 CVE-2018-17466 CVE-2018-12405</define-tag>
<define-tag packages>thunderbird</define-tag>
<define-tag isvulnerable>yes</define-tag>
<define-tag fixed>yes</define-tag>
<define-tag fixed-section>no</define-tag>

#use wml::debian::security



</dl>
