<define-tag pagetitle>DLA-1644-1 policykit-1</define-tag>
<define-tag report_date>2019-1-28</define-tag>
<define-tag secrefs>CVE-2018-19788 CVE-2019-6133</define-tag>
<define-tag packages>policykit-1</define-tag>
<define-tag isvulnerable>yes</define-tag>
<define-tag fixed>yes</define-tag>
<define-tag fixed-section>no</define-tag>

#use wml::debian::security

